
################################################################################################################################################
Starting Execution:	[2 out of 2] test cases in the current suite
Test Method:		[idemia.ivps.E2E.A1_1_Generate_Violations_Without_Review_New_Plate.Create_and_Submit_125_Form_using_New_Plate_ID]
Test Description:	[Create and Submit 125 Form for New Plate ID]
################################################################################################################################################